trace.vcd
$version Generated by VerilatedVcd $end
$date Sun May 22 19:06:22 2022 $end
$timescale 1ps $end

 $scope module TOP $end
  $var wire  1 D! alu_op_end_o $end
  $var wire  1 0! clk_i $end
  $var wire 32 6! instr_addr_o [31:0] $end
  $var wire 32 4! instr_rdata_i [31:0] $end
  $var wire  1 2! instr_ready_i $end
  $var wire  1 5! instr_req_o $end
  $var wire  1 3! instr_valid_i $end
  $var wire 32 :! rdata_addr_o [31:0] $end
  $var wire 32 9! rdata_data_i [31:0] $end
  $var wire  1 7! rdata_ready_i $end
  $var wire  1 <! rdata_req_o $end
  $var wire  4 ;! rdata_strb_o [3:0] $end
  $var wire  1 8! rdata_valid_i $end
  $var wire 32 C! result_o [31:0] $end
  $var wire  1 1! rstn_i $end
  $var wire 32 @! wdata_addr_o [31:0] $end
  $var wire 32 ?! wdata_data_o [31:0] $end
  $var wire  1 =! wdata_ready_i $end
  $var wire  1 B! wdata_req_o $end
  $var wire  4 A! wdata_strb_o [3:0] $end
  $var wire  1 >! wdata_valid_i $end
  $scope module beta_dec_stage_pkg $end
   $var wire  5 Q! Major_AUIPC [4:0] $end
   $var wire  5 U! Major_BRANCH [4:0] $end
   $var wire  5 O! Major_IMM [4:0] $end
   $var wire  5 S! Major_JAL [4:0] $end
   $var wire  5 T! Major_JALR [4:0] $end
   $var wire  5 V! Major_LOAD [4:0] $end
   $var wire  5 P! Major_LUI [4:0] $end
   $var wire  5 R! Major_REG [4:0] $end
   $var wire  5 W! Major_STORE [4:0] $end
   $var wire  3 X! Minor_ADD [2:0] $end
   $var wire  3 X! Minor_ADDI [2:0] $end
   $var wire  3 _! Minor_AND [2:0] $end
   $var wire  3 _! Minor_ANDI [2:0] $end
   $var wire  3 X! Minor_BEQ [2:0] $end
   $var wire  3 ]! Minor_BGE [2:0] $end
   $var wire  3 _! Minor_BGEU [2:0] $end
   $var wire  3 \! Minor_BLT [2:0] $end
   $var wire  3 ^! Minor_BLTU [2:0] $end
   $var wire  3 Y! Minor_BNE [2:0] $end
   $var wire  3 X! Minor_LB [2:0] $end
   $var wire  3 \! Minor_LBU [2:0] $end
   $var wire  3 Y! Minor_LH [2:0] $end
   $var wire  3 ]! Minor_LHU [2:0] $end
   $var wire  3 Z! Minor_LW [2:0] $end
   $var wire  3 ^! Minor_OR [2:0] $end
   $var wire  3 ^! Minor_ORI [2:0] $end
   $var wire  3 X! Minor_SB [2:0] $end
   $var wire  3 Y! Minor_SH [2:0] $end
   $var wire  3 Y! Minor_SLL [2:0] $end
   $var wire  3 Y! Minor_SLLI [2:0] $end
   $var wire  3 Z! Minor_SLT [2:0] $end
   $var wire  3 Z! Minor_SLTI [2:0] $end
   $var wire  3 [! Minor_SLTIU [2:0] $end
   $var wire  3 [! Minor_SLTU [2:0] $end
   $var wire  3 ]! Minor_SRA [2:0] $end
   $var wire  3 ]! Minor_SRAI [2:0] $end
   $var wire  3 ]! Minor_SRL [2:0] $end
   $var wire  3 ]! Minor_SRLI [2:0] $end
   $var wire  3 X! Minor_SUB [2:0] $end
   $var wire  3 Z! Minor_SW [2:0] $end
   $var wire  3 \! Minor_XOR [2:0] $end
   $var wire  3 \! Minor_XORI [2:0] $end
  $upscope $end
  $scope module beta_exe_stage_pkg $end
   $var wire  1 a! MEM_LOAD_OP $end
   $var wire  2 N! MEM_SIZE_BYTE [1:0] $end
   $var wire  2 M! MEM_SIZE_HALF [1:0] $end
   $var wire  2 L! MEM_SIZE_WORD [1:0] $end
   $var wire  1 F! MEM_STORE_OP $end
   $var wire  2 L! RDMEM_IDLE [1:0] $end
   $var wire  2 M! RDMEM_WRDY [1:0] $end
   $var wire  2 N! RDMEM_WVLD [1:0] $end
   $var wire  2 `! SHIFT_ARIGHT [1:0] $end
   $var wire  2 M! SHIFT_LEFT [1:0] $end
   $var wire  2 L! SHIFT_NONE [1:0] $end
   $var wire  2 N! SHIFT_RIGHT [1:0] $end
   $var wire  2 L! WDMEM_IDLE [1:0] $end
   $var wire  2 M! WDMEM_WRDY [1:0] $end
   $var wire  2 N! WDMEM_WVLD [1:0] $end
   $var wire 32 K! rdmem_fsm_bsize [31:0] $end
   $var wire 32 K! wdmem_fsm_bsize [31:0] $end
  $upscope $end
  $scope module beta_if_stage_pkg $end
   $var wire  2 L! IMEM_IDLE [1:0] $end
   $var wire  2 M! IMEM_WRDY [1:0] $end
   $var wire  2 N! IMEM_WVLD [1:0] $end
   $var wire 32 K! imem_fsm_bsize [31:0] $end
  $upscope $end
  $scope module beta_pkg $end
   $var wire 32 J! XLEN [31:0] $end
  $upscope $end
  $scope module beta_top $end
   $var wire 32 E! AddressWidth [31:0] $end
   $var wire 32 E! DataWidth [31:0] $end
   $var wire  1 F! alu_op_end_int $end
   $var wire  1 D! alu_op_end_o $end
   $var wire  1 0! clk_i $end
   $var wire 25 ) dec_control_word_int [24:0] $end
   $var wire 12 $ dec_offset12_int [11:0] $end
   $var wire 20 % dec_offset20_int [19:0] $end
   $var wire 32 & dec_operand_a_int [31:0] $end
   $var wire 32 ' dec_operand_b_int [31:0] $end
   $var wire  5 ( dec_rd_addr_int [4:0] $end
   $var wire  1 1 dec_stage_busy_int $end
   $var wire  5 ( exe_rd_addr_int [4:0] $end
   $var wire  1 2 exe_stage_busy_int $end
   $var wire  1 - fetch_en_int $end
   $var wire  1 3 first_reset $end
   $var wire  1 1 if_stage_busy_int $end
   $var wire 32 . instr_addr_int [31:0] $end
   $var wire 32 6! instr_addr_o [31:0] $end
   $var wire 32 / instr_int [31:0] $end
   $var wire 32 4! instr_rdata_i [31:0] $end
   $var wire  1 2! instr_ready_i $end
   $var wire  1 0 instr_req_int $end
   $var wire  1 5! instr_req_o $end
   $var wire  1 3! instr_valid_i $end
   $var wire  1 3! new_instr_int $end
   $var wire 32 * next_pc_int [31:0] $end
   $var wire  1 , pc_en_int $end
   $var wire 32 :! rdata_addr_o [31:0] $end
   $var wire 32 9! rdata_data_i [31:0] $end
   $var wire  1 7! rdata_ready_i $end
   $var wire  1 <! rdata_req_o $end
   $var wire  4 ;! rdata_strb_o [3:0] $end
   $var wire  1 8! rdata_valid_i $end
   $var wire  1 + reg_wr_en_int $end
   $var wire 32 # result_int [31:0] $end
   $var wire 32 C! result_o [31:0] $end
   $var wire  1 1! rstn_i $end
   $var wire 32 @! wdata_addr_o [31:0] $end
   $var wire 32 ?! wdata_data_o [31:0] $end
   $var wire  1 =! wdata_ready_i $end
   $var wire  1 B! wdata_req_o $end
   $var wire  4 A! wdata_strb_o [3:0] $end
   $var wire  1 >! wdata_valid_i $end
   $scope module dec_stage $end
    $var wire 32 G! Compressed [31:0] $end
    $var wire 32 E! DataWidth [31:0] $end
    $var wire 32 G! Embedded [31:0] $end
    $var wire  1 0! clk_i $end
    $var wire 25 ) control_word_int [24:0] $end
    $var wire  9 9 cu_address_int [8:0] $end
    $var wire 25 ) dec_control_word_o [24:0] $end
    $var wire 32 / dec_instr_i [31:0] $end
    $var wire  1 3! dec_new_instr_i $end
    $var wire 12 $ dec_offset12_o [11:0] $end
    $var wire 20 % dec_offset20_o [19:0] $end
    $var wire 32 & dec_operand_a_o [31:0] $end
    $var wire 32 ' dec_operand_b_o [31:0] $end
    $var wire  5 ( dec_rd_addr_i [4:0] $end
    $var wire  5 ( dec_rd_addr_o [4:0] $end
    $var wire 32 # dec_rd_wdata_i [31:0] $end
    $var wire  1 + dec_reg_wr_en_i $end
    $var wire  1 1 dec_stage_busy_o $end
    $var wire  1 1 if_stage_busy_i $end
    $var wire 12 $ imm12_int [11:0] $end
    $var wire 20 % imm20_int [19:0] $end
    $var wire  1 : invalid_instr_int $end
    $var wire  1 < new_instruction_latch $end
    $var wire 32 & operand_a_int [31:0] $end
    $var wire 32 ' operand_b_int [31:0] $end
    $var wire  5 ( rd_addr_int [4:0] $end
    $var wire  1 ; rd_wr_en_int $end
    $var wire  5 5 rs1_addr_int [4:0] $end
    $var wire 32 7 rs1_data_int [31:0] $end
    $var wire  5 6 rs2_addr_int [4:0] $end
    $var wire 32 8 rs2_data_int [31:0] $end
    $var wire  1 1! rstn_i $end
    $scope module control_unit $end
     $var wire  1 0! clk_i $end
     $var wire 25 ) control_word_o [24:0] $end
     $var wire  9 9 cu_address_i [8:0] $end
     $var wire 25 ) cw_int [24:0] $end
     $var wire  1 : invalid_instr_i $end
     $var wire  1 1! rstn_i $end
    $upscope $end
    $scope module decoder $end
     $var wire  1 0! clk_i $end
     $var wire  9 @ cu_addr_int [8:0] $end
     $var wire  9 9 cu_addr_o [8:0] $end
     $var wire  3 > funct3_int [2:0] $end
     $var wire  1 B funct3_mask_bit_int $end
     $var wire  7 ? funct7_int [6:0] $end
     $var wire  1 A funct7_mask_bit_int $end
     $var wire 12 $ imm12_int [11:0] $end
     $var wire 12 $ imm12_o [11:0] $end
     $var wire 20 % imm20_int [19:0] $end
     $var wire 20 % imm20_o [19:0] $end
     $var wire 32 / instr_i [31:0] $end
     $var wire  1 : invalid_instr_int $end
     $var wire  1 : invalid_instr_o $end
     $var wire  1 C invalid_opcode_int $end
     $var wire  7 = opcode_int [6:0] $end
     $var wire  5 ( rd_int [4:0] $end
     $var wire  5 ( rd_o [4:0] $end
     $var wire  5 5 rs1_int [4:0] $end
     $var wire  5 5 rs1_o [4:0] $end
     $var wire  5 6 rs2_int [4:0] $end
     $var wire  5 6 rs2_o [4:0] $end
     $var wire  1 1! rstn_i $end
    $upscope $end
    $scope module regfile $end
     $var wire  1 0! clk_i $end
     $var wire  5 ( rd_addr_i [4:0] $end
     $var wire 32 # rd_wdata_i [31:0] $end
     $var wire 32 D regfile_data_int(0) [31:0] $end
     $var wire 32 E regfile_data_int(1) [31:0] $end
     $var wire 32 N regfile_data_int(10) [31:0] $end
     $var wire 32 O regfile_data_int(11) [31:0] $end
     $var wire 32 P regfile_data_int(12) [31:0] $end
     $var wire 32 Q regfile_data_int(13) [31:0] $end
     $var wire 32 R regfile_data_int(14) [31:0] $end
     $var wire 32 S regfile_data_int(15) [31:0] $end
     $var wire 32 T regfile_data_int(16) [31:0] $end
     $var wire 32 U regfile_data_int(17) [31:0] $end
     $var wire 32 V regfile_data_int(18) [31:0] $end
     $var wire 32 W regfile_data_int(19) [31:0] $end
     $var wire 32 F regfile_data_int(2) [31:0] $end
     $var wire 32 X regfile_data_int(20) [31:0] $end
     $var wire 32 Y regfile_data_int(21) [31:0] $end
     $var wire 32 Z regfile_data_int(22) [31:0] $end
     $var wire 32 [ regfile_data_int(23) [31:0] $end
     $var wire 32 \ regfile_data_int(24) [31:0] $end
     $var wire 32 ] regfile_data_int(25) [31:0] $end
     $var wire 32 ^ regfile_data_int(26) [31:0] $end
     $var wire 32 _ regfile_data_int(27) [31:0] $end
     $var wire 32 ` regfile_data_int(28) [31:0] $end
     $var wire 32 a regfile_data_int(29) [31:0] $end
     $var wire 32 G regfile_data_int(3) [31:0] $end
     $var wire 32 b regfile_data_int(30) [31:0] $end
     $var wire 32 c regfile_data_int(31) [31:0] $end
     $var wire 32 H regfile_data_int(4) [31:0] $end
     $var wire 32 I regfile_data_int(5) [31:0] $end
     $var wire 32 J regfile_data_int(6) [31:0] $end
     $var wire 32 K regfile_data_int(7) [31:0] $end
     $var wire 32 L regfile_data_int(8) [31:0] $end
     $var wire 32 M regfile_data_int(9) [31:0] $end
     $var wire  5 5 rs1_addr_i [4:0] $end
     $var wire 32 7 rs1_data_int [31:0] $end
     $var wire 32 7 rs1_data_o [31:0] $end
     $var wire  5 6 rs2_addr_i [4:0] $end
     $var wire 32 8 rs2_data_int [31:0] $end
     $var wire 32 8 rs2_data_o [31:0] $end
     $var wire  1 1! rstn_i $end
     $var wire  1 ; wr_en_i $end
     $scope module write_proc $end
      $scope module unnamedblk1 $end
       $var wire 32 d i [31:0] $end
      $upscope $end
     $upscope $end
    $upscope $end
   $upscope $end
   $scope module exe_stage $end
    $var wire 32 E! AddressWidth [31:0] $end
    $var wire 32 E! DataWidth [31:0] $end
    $var wire  5 h alu_op_int [4:0] $end
    $var wire 32 g alu_result_int [31:0] $end
    $var wire 32 j bju_next_pc_int [31:0] $end
    $var wire  5 i bju_op_int [4:0] $end
    $var wire  1 0! clk_i $end
    $var wire  1 1 dec_stage_busy_i $end
    $var wire  1 F! exe_alu_op_end_int $end
    $var wire  1 F! exe_alu_op_end_o $end
    $var wire  3 f exe_alu_stat_int [2:0] $end
    $var wire 19 e exe_control_word_i [18:0] $end
    $var wire 32 * exe_next_pc_int [31:0] $end
    $var wire 32 * exe_next_pc_o [31:0] $end
    $var wire 12 $ exe_offset12_i [11:0] $end
    $var wire 20 % exe_offset20_i [19:0] $end
    $var wire 32 & exe_operand_a_i [31:0] $end
    $var wire 32 ' exe_operand_b_i [31:0] $end
    $var wire 32 . exe_pc_i [31:0] $end
    $var wire  5 ( exe_rd_addr_i [4:0] $end
    $var wire  5 ( exe_rd_addr_int [4:0] $end
    $var wire  5 ( exe_rd_addr_o [4:0] $end
    $var wire  1 + exe_reg_wr_en_o $end
    $var wire 32 # exe_result_int [31:0] $end
    $var wire 32 # exe_result_o [31:0] $end
    $var wire  1 w exe_stage_busy_int $end
    $var wire  1 2 exe_stage_busy_o $end
    $var wire 32 k incr_pc_int [31:0] $end
    $var wire 32 g lsu_addr_int [31:0] $end
    $var wire  1 r lsu_busy_int $end
    $var wire  1 u lsu_en_int $end
    $var wire  1 t lsu_op_int $end
    $var wire  2 s lsu_op_size_int [1:0] $end
    $var wire 32 v lsu_result_int [31:0] $end
    $var wire  1 m nextpc_mux_sel_int $end
    $var wire 32 :! rdata_addr_o [31:0] $end
    $var wire 32 9! rdata_data_i [31:0] $end
    $var wire  1 7! rdata_ready_i $end
    $var wire  1 <! rdata_req_o $end
    $var wire  4 ;! rdata_strb_o [3:0] $end
    $var wire  1 8! rdata_valid_i $end
    $var wire  6 l result_mux_sel_int [5:0] $end
    $var wire  1 1! rstn_i $end
    $var wire  1 p shu_busy_int $end
    $var wire  1 o shu_en_int $end
    $var wire  2 n shu_mode_int [1:0] $end
    $var wire 32 x shu_result_int [31:0] $end
    $var wire  2 q shu_size_int [1:0] $end
    $var wire 32 @! wdata_addr_o [31:0] $end
    $var wire 32 ?! wdata_data_o [31:0] $end
    $var wire  1 =! wdata_ready_i $end
    $var wire  1 B! wdata_req_o $end
    $var wire  4 A! wdata_strb_o [3:0] $end
    $var wire  1 >! wdata_valid_i $end
    $scope module alu $end
     $var wire  1 F! alu_int_end $end
     $var wire  1 F! alu_op_end_o $end
     $var wire 32 g alu_result_o [31:0] $end
     $var wire  3 f alu_stat_int [2:0] $end
     $var wire  3 f alu_stat_o [2:0] $end
     $var wire  1 0! clk_i $end
     $var wire 32 g op_result_int [31:0] $end
     $var wire 32 & operand_a_i [31:0] $end
     $var wire 32 ' operand_b_i [31:0] $end
     $var wire  5 h operation_i [4:0] $end
     $var wire  1 1! rstn_i $end
     $var wire 32 ~ status_comp_data [31:0] $end
     $var wire  1 H! status_flag_int $end
    $upscope $end
    $scope module bju $end
     $var wire 32 I! DATAWIDTH [31:0] $end
     $var wire  3 f bju_alu_stat_i [2:0] $end
     $var wire 32 & bju_basereg_i [31:0] $end
     $var wire  1 $! bju_branch_taken_int $end
     $var wire  1 $! bju_branch_taken_o $end
     $var wire 32 j bju_next_pc_int [31:0] $end
     $var wire 32 j bju_next_pc_o [31:0] $end
     $var wire 12 $ bju_offset12_i [11:0] $end
     $var wire 20 % bju_offset20_i [19:0] $end
     $var wire  5 i bju_op_i [4:0] $end
     $var wire 32 . bju_pc_i [31:0] $end
     $var wire 32 %! bju_selected_data_int [31:0] $end
     $var wire  1 0! clk_i $end
     $var wire  1 1! rstn_i $end
    $upscope $end
    $scope module exe_cu $end
     $var wire 32 E! DataWidth [31:0] $end
     $var wire  1 0! clk_i $end
     $var wire  1 { event_latch $end
     $var wire  1 F! execu_alu_op_end_i $end
     $var wire  5 h execu_alu_op_int [4:0] $end
     $var wire  5 h execu_alu_op_o [4:0] $end
     $var wire  5 i execu_bju_op_int [4:0] $end
     $var wire  5 i execu_bju_op_o [4:0] $end
     $var wire 19 e execu_control_word_i [18:0] $end
     $var wire  1 1 execu_dec_stage_busy_i $end
     $var wire  1 w execu_exe_stage_busy_int $end
     $var wire  1 w execu_exe_stage_busy_o $end
     $var wire  1 r execu_lsu_busy_i $end
     $var wire  1 u execu_lsu_en_int $end
     $var wire  1 u execu_lsu_en_o $end
     $var wire  1 t execu_lsu_op_int $end
     $var wire  1 t execu_lsu_op_o $end
     $var wire  2 s execu_lsu_op_size_int [1:0] $end
     $var wire  2 s execu_lsu_op_size_o [1:0] $end
     $var wire  1 m execu_nextpc_sel_int $end
     $var wire  1 m execu_nextpc_sel_o $end
     $var wire  6 l execu_result_sel_int [5:0] $end
     $var wire  6 l execu_result_sel_o [5:0] $end
     $var wire  1 p execu_shu_busy_i $end
     $var wire  1 o execu_shu_en_int $end
     $var wire  1 o execu_shu_en_o $end
     $var wire  2 n execu_shu_mode_int [1:0] $end
     $var wire  2 n execu_shu_mode_o [1:0] $end
     $var wire  2 q execu_shu_size_i [1:0] $end
     $var wire  2 z lsu_fsm [1:0] $end
     $var wire  2 } lsu_latch [1:0] $end
     $var wire  1 1! rstn_i $end
     $var wire  2 y shift_fsm [1:0] $end
     $var wire  2 | shift_latch [1:0] $end
    $upscope $end
    $scope module lsu $end
     $var wire 32 E! AddressWidth [31:0] $end
     $var wire 32 E! DataWidth [31:0] $end
     $var wire  1 0! clk_i $end
     $var wire  1 r lsu_busy_int $end
     $var wire  1 r lsu_busy_o $end
     $var wire  1 u lsu_op_en_i $end
     $var wire  1 t lsu_op_i $end
     $var wire  2 s lsu_op_size_i [1:0] $end
     $var wire 32 v lsu_result_int [31:0] $end
     $var wire 32 v lsu_result_o [31:0] $end
     $var wire 12 $ lsu_woffset_i [11:0] $end
     $var wire 32 g op_addr_i [31:0] $end
     $var wire 32 ' op_data_i [31:0] $end
     $var wire 32 &! rdata_addr_int [31:0] $end
     $var wire 32 :! rdata_addr_o [31:0] $end
     $var wire 32 9! rdata_data_i [31:0] $end
     $var wire  1 7! rdata_ready_i $end
     $var wire  1 (! rdata_req_int $end
     $var wire  1 <! rdata_req_o $end
     $var wire  4 '! rdata_strb_int [3:0] $end
     $var wire  4 ;! rdata_strb_o [3:0] $end
     $var wire  1 8! rdata_valid_i $end
     $var wire  2 -! rdmem_state [1:0] $end
     $var wire  1 1! rstn_i $end
     $var wire 32 *! wdata_addr_int [31:0] $end
     $var wire 32 @! wdata_addr_o [31:0] $end
     $var wire 32 )! wdata_data_int [31:0] $end
     $var wire 32 ?! wdata_data_o [31:0] $end
     $var wire  1 =! wdata_ready_i $end
     $var wire  1 ,! wdata_req_int $end
     $var wire  1 B! wdata_req_o $end
     $var wire  4 +! wdata_strb_int [3:0] $end
     $var wire  4 A! wdata_strb_o [3:0] $end
     $var wire  1 >! wdata_valid_i $end
     $var wire  2 .! wdmem_state [1:0] $end
     $var wire 32 /! woffset_int [31:0] $end
    $upscope $end
    $scope module shu $end
     $var wire  1 0! clk_i $end
     $var wire 32 & operand_a_i [31:0] $end
     $var wire  5 !! operand_b_i [4:0] $end
     $var wire  1 1! rstn_i $end
     $var wire  5 "! shiftreg_cnt_int [4:0] $end
     $var wire  1 p shu_busy_int $end
     $var wire  1 p shu_busy_o $end
     $var wire  1 o shu_en_i $end
     $var wire  1 #! shu_end $end
     $var wire  2 n shu_mode_i [1:0] $end
     $var wire 32 x shu_result_int [31:0] $end
     $var wire 32 x shu_result_o [31:0] $end
    $upscope $end
   $upscope $end
   $scope module if_stage $end
    $var wire 32 E! DataWidth [31:0] $end
    $var wire 32 G! PrefetchBuffer [31:0] $end
    $var wire  1 0! clk_i $end
    $var wire 32 . curr_pc_int [31:0] $end
    $var wire 32 G! iCache [31:0] $end
    $var wire 32 G! iTCM [31:0] $end
    $var wire 32 . if_curr_pc_o [31:0] $end
    $var wire  1 - if_fetch_en_i $end
    $var wire 32 / if_instr_o [31:0] $end
    $var wire 32 4! if_instr_rdata_i [31:0] $end
    $var wire  1 2! if_instr_ready_i $end
    $var wire  1 0 if_instr_req_o $end
    $var wire  1 3! if_instr_valid_i $end
    $var wire  1 3! if_new_instr_o $end
    $var wire 32 * if_next_pc_i [31:0] $end
    $var wire  1 , if_pc_en_i $end
    $var wire  1 1 if_stage_busy_int $end
    $var wire  1 1 if_stage_busy_o $end
    $var wire 32 / instr_int [31:0] $end
    $var wire  1 0 instr_req_int $end
    $var wire  1 3! new_instr_int $end
    $var wire  1 1! rstn_i $end
    $scope module fu $end
     $var wire 32 E! DataWidth [31:0] $end
     $var wire  1 0! clk_i $end
     $var wire  1 - if_fu_fetch_en_i $end
     $var wire 32 / if_fu_instr_o [31:0] $end
     $var wire 32 4! if_fu_instr_rdata_i [31:0] $end
     $var wire  1 2! if_fu_instr_ready_i $end
     $var wire  1 0 if_fu_instr_req_o $end
     $var wire  1 3! if_fu_instr_valid_i $end
     $var wire  1 1 if_fu_stage_busy_o $end
     $var wire  1 1 if_stage_busy_int $end
     $var wire  2 4 imem_state_int [1:0] $end
     $var wire 32 / instr_int [31:0] $end
     $var wire  1 0 instr_req_int $end
     $var wire  1 1! rstn_i $end
    $upscope $end
   $upscope $end
  $upscope $end
 $upscope $end
$enddefinitions $end


#8
b00000000000000000000000000000000 #
b000000000000 $
b00000000000000000000 %
b00000000000000000000000000000000 &
b00000000000000000000000000000000 '
b00000 (
b0000000000000000000000000 )
b00000000000000000000000000000100 *
0+
1,
1-
b00000000000000000000000000000000 .
b00000000000000000000000000000000 /
00
01
02
03
b00 4
b00000 5
b00000 6
b00000000000000000000000000000000 7
b00000000000000000000000000000000 8
b111111111 9
1:
0;
0<
b0000000 =
b000 >
b0000000 ?
b000000000 @
0A
0B
0C
b00000000000000000000000000000000 D
b00000000000000000000000000000000 E
b00000000000000000000000000000000 F
b00000000000000000000000000000000 G
b00000000000000000000000000000000 H
b00000000000000000000000000000000 I
b00000000000000000000000000000000 J
b00000000000000000000000000000000 K
b00000000000000000000000000000000 L
b00000000000000000000000000000000 M
b00000000000000000000000000000000 N
b00000000000000000000000000000000 O
b00000000000000000000000000000000 P
b00000000000000000000000000000000 Q
b00000000000000000000000000000000 R
b00000000000000000000000000000000 S
b00000000000000000000000000000000 T
b00000000000000000000000000000000 U
b00000000000000000000000000000000 V
b00000000000000000000000000000000 W
b00000000000000000000000000000000 X
b00000000000000000000000000000000 Y
b00000000000000000000000000000000 Z
b00000000000000000000000000000000 [
b00000000000000000000000000000000 \
b00000000000000000000000000000000 ]
b00000000000000000000000000000000 ^
b00000000000000000000000000000000 _
b00000000000000000000000000000000 `
b00000000000000000000000000000000 a
b00000000000000000000000000000000 b
b00000000000000000000000000000000 c
b00000000000000000000000000000000 d
b0000000000000000000 e
b100 f
b00000000000000000000000000000000 g
b00000 h
b00000 i
b00000000000000000000000000000000 j
b00000000000000000000000000000100 k
b000000 l
0m
b00 n
0o
0p
b00 q
0r
b00 s
0t
0u
b00000000000000000000000000000000 v
0w
b00000000000000000000000000000000 x
b00 y
b00 z
0{
b00 |
b00 }
b00000000000000000000000000000000 ~
b00000 !!
b00000 "!
0#!
0$!
b00000000000000000000000000000000 %!
b00000000000000000000000000000000 &!
b0000 '!
0(!
b00000000000000000000000000000000 )!
b00000000000000000000000000000000 *!
b0000 +!
0,!
b00 -!
b00 .!
b00000000000000000000000000000000 /!
00!
01!
02!
03!
b00000000000000000000000000000000 4!
05!
b00000000000000000000000000000000 6!
07!
08!
b00000000000000000000000000000000 9!
b00000000000000000000000000000000 :!
b0000 ;!
0<!
0=!
0>!
b00000000000000000000000000000000 ?!
b00000000000000000000000000000000 @!
b0000 A!
0B!
b00000000000000000000000000000000 C!
1D!
b00000000000000000000000000100000 E!
1F!
b00000000000000000000000000000000 G!
0H!
b00000000000000000000000000100000 I!
b00000000000000000000000000100000 J!
b00000000000000000000000000000010 K!
b00 L!
b01 M!
b10 N!
b00100 O!
b01101 P!
b00101 Q!
b01100 R!
b11011 S!
b11001 T!
b11000 U!
b00000 V!
b01000 W!
b000 X!
b001 Y!
b010 Z!
b011 [!
b100 \!
b101 ]!
b110 ^!
b111 _!
b11 `!
0a!
#10
13
b00000000000000000000000000100000 d
10!
#15
00!
#18
11!
#20
b00000000000000000000000000001000 *
0,
0-
b00000000000000000000000000000100 .
10
11
12
03
b01 4
b00000000000000000000000000000100 j
b00000000000000000000000000001000 k
10!
15!
b00000000000000000000000000000100 6!
#25
00!
#28
12!
#30
00
b10 4
10!
05!
#35
00!
#38
02!
13!
b00000000001100000000000010010011 4!
#40
b00000000000000000000000000000011 #
b000000000011 $
b00000000000000000000000000000011 '
b00001 (
b0000101001000000000000000 )
1+
1,
1-
b00000000001100000000000010010011 /
01
02
b00 4
b00011 6
b001000000 9
0:
1;
1<
b0010011 =
b001000000 @
b1001000000000000000 e
b010 f
b00000000000000000000000000000011 g
b01000 h
b000110 l
b11 q
b11111111111111111111111111111101 ~
b00011 !!
b00000000000000000000000000000011 /!
10!
b00000000000000000000000000000011 C!
#45
00!
#48
03!
#50
b00000000000000000000000000001100 *
0-
b00000000000000000000000000001000 .
10
11
12
b01 4
0;
0<
b00000000000000000000000000000011 E
b00000000000000000000000000001000 j
b00000000000000000000000000001100 k
10!
15!
b00000000000000000000000000001000 6!
#55
00!
#58
12!
#60
00
b10 4
10!
05!
#65
00!
#68
02!
13!
b11111111111100001000000100010011 4!
#70
b00000000000000000000000000000010 #
b111111111111 $
b00000000000000000000000000000011 &
b11111111111111111111111111111111 '
b00010 (
1-
b11111111111100001000000100010011 /
01
02
b00 4
b00001 5
b11111 6
b00000000000000000000000000000011 7
1;
1<
b1111111 ?
b000 f
b00000000000000000000000000000010 g
b00000000000000000000000000000100 ~
b11111 !!
b11111111111111111111111111111111 /!
10!
b00000000000000000000000000000010 C!
#75
00!
#78
03!
#80
b00000000000000000000000000010000 *
0-
b00000000000000000000000000001100 .
10
11
12
b01 4
0;
0<
b00000000000000000000000000000010 F
b00000000000000000000000000001100 j
b00000000000000000000000000010000 k
10!
15!
b00000000000000000000000000001100 6!
#85
00!
#88
12!
#90
00
b10 4
10!
05!
#95
00!
#98
02!
13!
b00000000000100000000000110110011 4!
#100
b00000000000000000000000000000011 #
b000000000000 $
b00000000000000000000000000000000 &
b00000000000000000000000000000011 '
b00011 (
b0000001001000000000000000 )
1-
b00000000000100000000000110110011 /
01
02
b00 4
b00000 5
b00001 6
b00000000000000000000000000000000 7
b00000000000000000000000000000011 8
b011000000 9
1;
1<
b0110011 =
b0000000 ?
b011000000 @
1A
b010 f
b00000000000000000000000000000011 g
b11111111111111111111111111111101 ~
b00011 !!
b00000000000000000000000000000000 /!
10!
b00000000000000000000000000000011 C!
#105
00!
#108
03!
#110
b00000000000000000000000000010100 *
0-
b00000000000000000000000000010000 .
10
11
12
b01 4
0;
0<
b00000000000000000000000000000011 G
b00000000000000000000000000010000 j
b00000000000000000000000000010100 k
10!
15!
b00000000000000000000000000010000 6!
#115
00!
#118
12!
#120
00
b10 4
10!
05!
#125
00!
#128
02!
13!
b00000000000100000000111100010011 4!
#130
b00000000000000000000000000000001 #
b000000000001 $
b00000000000000000000000000000001 '
b11110 (
b0000101001000000000000000 )
1-
b00000000000100000000111100010011 /
01
02
b00 4
b001000000 9
1;
1<
b0010011 =
b001000000 @
0A
b00000000000000000000000000000001 g
b000010 l
b01 q
b11111111111111111111111111111111 ~
b00001 !!
b00000000000000000000000000000001 /!
10!
b00000000000000000000000000000001 C!
#135
00!
#138
03!
#140
b00000000000000000000000000011000 *
0-
b00000000000000000000000000010100 .
10
11
12
b01 4
0;
0<
b00000000000000000000000000000001 b
b00000000000000000000000000010100 j
b00000000000000000000000000011000 k
10!
15!
b00000000000000000000000000010100 6!
#145
00!
#148
12!
#150
00
b10 4
10!
05!
#155
00!
#158
02!
13!
b00000000000100000000001000110011 4!
#160
b00000000000000000000000000000011 #
b000000000000 $
b00000000000000000000000000000011 '
b00100 (
b0000001001000000000000000 )
1-
b00000000000100000000001000110011 /
01
02
b00 4
b011000000 9
1;
1<
b0110011 =
b011000000 @
1A
b00000000000000000000000000000011 g
b000110 l
b11 q
b11111111111111111111111111111101 ~
b00011 !!
b00000000000000000000000000000000 /!
10!
b00000000000000000000000000000011 C!
#165
00!
#168
03!
#170
b00000000000000000000000000011100 *
0-
b00000000000000000000000000011000 .
10
11
12
b01 4
0;
0<
b00000000000000000000000000000011 H
b00000000000000000000000000011000 j
b00000000000000000000000000011100 k
10!
15!
b00000000000000000000000000011000 6!
#175
00!
#178
12!
#180
00
b10 4
10!
05!
#185
00!
#188
02!
13!
b11111111111000100000001000010011 4!
#190
b00000000000000000000000000000001 #
b111111111110 $
b00000000000000000000000000000011 &
b11111111111111111111111111111110 '
b0000101001000000000000000 )
1-
b11111111111000100000001000010011 /
01
02
b00 4
b00100 5
b11110 6
b00000000000000000000000000000011 7
b00000000000000000000000000000001 8
b001000000 9
1;
1<
b0010011 =
b1111111 ?
b001000000 @
0A
b000 f
b00000000000000000000000000000001 g
b000100 l
b10 q
b00000000000000000000000000000101 ~
b11110 !!
b11111111111111111111111111111110 /!
10!
b00000000000000000000000000000001 C!
#195
00!
#198
03!
#200
b11111111111111111111111111111111 #
b00000000000000000000000000000001 &
b00000000000000000000000000100000 *
0-
b00000000000000000000000000011100 .
10
11
12
b01 4
b00000000000000000000000000000001 7
0;
0<
b00000000000000000000000000000001 H
b11111111111111111111111111111111 g
b00000000000000000000000000011100 j
b00000000000000000000000000100000 k
b00000000000000000000000000000011 ~
10!
15!
b00000000000000000000000000011100 6!
b11111111111111111111111111111111 C!
#205
00!
#208
12!
#210
00
b10 4
10!
05!
#215
00!
