trace.vcd
$version Generated by VerilatedVcd $end
$date Sat Jul  2 18:30:04 2022
 $end
$timescale   1ps $end

 $scope module TOP $end
  $var wire  1 T! alu_op_end_o $end
  $var wire  1 @! clk_i $end
  $var wire 32 F! instr_addr_o [31:0] $end
  $var wire 32 D! instr_rdata_i [31:0] $end
  $var wire  1 B! instr_ready_i $end
  $var wire  1 E! instr_req_o $end
  $var wire  1 C! instr_valid_i $end
  $var wire 32 J! rdata_addr_o [31:0] $end
  $var wire 32 I! rdata_data_i [31:0] $end
  $var wire  1 G! rdata_ready_i $end
  $var wire  1 L! rdata_req_o $end
  $var wire  4 K! rdata_strb_o [3:0] $end
  $var wire  1 H! rdata_valid_i $end
  $var wire 32 S! result_o [31:0] $end
  $var wire  1 A! rstn_i $end
  $var wire 32 P! wdata_addr_o [31:0] $end
  $var wire 32 O! wdata_data_o [31:0] $end
  $var wire  1 M! wdata_ready_i $end
  $var wire  1 R! wdata_req_o $end
  $var wire  4 Q! wdata_strb_o [3:0] $end
  $var wire  1 N! wdata_valid_i $end
  $scope module beta_dec_stage_pkg $end
   $var wire  5 g! Major_AUIPC [4:0] $end
   $var wire  5 k! Major_BRANCH [4:0] $end
   $var wire  5 e! Major_IMM [4:0] $end
   $var wire  5 i! Major_JAL [4:0] $end
   $var wire  5 j! Major_JALR [4:0] $end
   $var wire  5 l! Major_LOAD [4:0] $end
   $var wire  5 f! Major_LUI [4:0] $end
   $var wire  5 h! Major_REG [4:0] $end
   $var wire  5 m! Major_STORE [4:0] $end
   $var wire  3 n! Minor_ADD [2:0] $end
   $var wire  3 n! Minor_ADDI [2:0] $end
   $var wire  3 u! Minor_AND [2:0] $end
   $var wire  3 u! Minor_ANDI [2:0] $end
   $var wire  3 n! Minor_BEQ [2:0] $end
   $var wire  3 s! Minor_BGE [2:0] $end
   $var wire  3 u! Minor_BGEU [2:0] $end
   $var wire  3 r! Minor_BLT [2:0] $end
   $var wire  3 t! Minor_BLTU [2:0] $end
   $var wire  3 o! Minor_BNE [2:0] $end
   $var wire  3 n! Minor_LB [2:0] $end
   $var wire  3 r! Minor_LBU [2:0] $end
   $var wire  3 o! Minor_LH [2:0] $end
   $var wire  3 s! Minor_LHU [2:0] $end
   $var wire  3 p! Minor_LW [2:0] $end
   $var wire  3 t! Minor_OR [2:0] $end
   $var wire  3 t! Minor_ORI [2:0] $end
   $var wire  3 n! Minor_SB [2:0] $end
   $var wire  3 o! Minor_SH [2:0] $end
   $var wire  3 o! Minor_SLL [2:0] $end
   $var wire  3 o! Minor_SLLI [2:0] $end
   $var wire  3 p! Minor_SLT [2:0] $end
   $var wire  3 p! Minor_SLTI [2:0] $end
   $var wire  3 q! Minor_SLTIU [2:0] $end
   $var wire  3 q! Minor_SLTU [2:0] $end
   $var wire  3 s! Minor_SRA [2:0] $end
   $var wire  3 s! Minor_SRAI [2:0] $end
   $var wire  3 s! Minor_SRL [2:0] $end
   $var wire  3 s! Minor_SRLI [2:0] $end
   $var wire  3 n! Minor_SUB [2:0] $end
   $var wire  3 p! Minor_SW [2:0] $end
   $var wire  3 r! Minor_XOR [2:0] $end
   $var wire  3 r! Minor_XORI [2:0] $end
  $upscope $end
  $scope module beta_exe_stage_pkg $end
   $var wire  1 w! MEM_LOAD_OP $end
   $var wire  2 d! MEM_SIZE_BYTE [1:0] $end
   $var wire  2 c! MEM_SIZE_HALF [1:0] $end
   $var wire  2 b! MEM_SIZE_WORD [1:0] $end
   $var wire  1 V! MEM_STORE_OP $end
   $var wire  2 b! RDMEM_IDLE [1:0] $end
   $var wire  2 c! RDMEM_WRDY [1:0] $end
   $var wire  2 d! RDMEM_WVLD [1:0] $end
   $var wire  2 v! SHIFT_ARIGHT [1:0] $end
   $var wire  2 c! SHIFT_LEFT [1:0] $end
   $var wire  2 b! SHIFT_NONE [1:0] $end
   $var wire  2 d! SHIFT_RIGHT [1:0] $end
   $var wire  2 b! WDMEM_IDLE [1:0] $end
   $var wire  2 c! WDMEM_WRDY [1:0] $end
   $var wire  2 d! WDMEM_WVLD [1:0] $end
   $var wire 32 a! rdmem_fsm_bsize [31:0] $end
   $var wire 32 a! wdmem_fsm_bsize [31:0] $end
  $upscope $end
  $scope module beta_if_stage_pkg $end
   $var wire  2 b! IMEM_IDLE [1:0] $end
   $var wire  2 c! IMEM_WRDY [1:0] $end
   $var wire  2 d! IMEM_WVLD [1:0] $end
   $var wire 32 a! imem_fsm_bsize [31:0] $end
  $upscope $end
  $scope module beta_pkg $end
   $var wire 32 `! XLEN [31:0] $end
  $upscope $end
  $scope module beta_top $end
   $var wire 32 U! AddressWidth [31:0] $end
   $var wire 32 U! DataWidth [31:0] $end
   $var wire  1 V! alu_op_end_int $end
   $var wire  1 T! alu_op_end_o $end
   $var wire  1 @! clk_i $end
   $var wire 25 * dec_control_word_int [24:0] $end
   $var wire  1 , dec_new_instr_int $end
   $var wire 32 + dec_next_pc_int [31:0] $end
   $var wire 12 $ dec_offset12_int [11:0] $end
   $var wire 20 % dec_offset20_int [19:0] $end
   $var wire 32 & dec_operand_a_int [31:0] $end
   $var wire 32 ' dec_operand_b_int [31:0] $end
   $var wire  5 ( dec_rd_addr_int [4:0] $end
   $var wire  1 > dec_stage_busy_int $end
   $var wire  5 ) exe_rd_addr_int [4:0] $end
   $var wire  1 ? exe_stage_busy_int $end
   $var wire  1 1 fetch_en_int $end
   $var wire  1 D first_reset $end
   $var wire  1 = if_stage_busy_int $end
   $var wire 32 2 instr_addr_int [31:0] $end
   $var wire 32 F! instr_addr_o [31:0] $end
   $var wire 32 3 instr_int [31:0] $end
   $var wire 32 D! instr_rdata_i [31:0] $end
   $var wire  1 B! instr_ready_i $end
   $var wire  1 4 instr_req_int $end
   $var wire  1 E! instr_req_o $end
   $var wire  1 C! instr_valid_i $end
   $var wire  1 / new_instr_int $end
   $var wire 32 - next_pc_int [31:0] $end
   $var wire  1 0 pc_en_int $end
   $var wire  1 A pcu_pip0_flush_int $end
   $var wire  1 @ pcu_pip0_stall_int $end
   $var wire  1 C pcu_pip1_flush_int $end
   $var wire  1 B pcu_pip1_stall_int $end
   $var wire 32 5 pip0_instr_int [31:0] $end
   $var wire  1 , pip0_new_instr_int $end
   $var wire 32 + pip0_next_pc_int [31:0] $end
   $var wire 25 : pip1_control_word_int [24:0] $end
   $var wire  1 < pip1_new_instr_int $end
   $var wire 32 ; pip1_next_pc_int [31:0] $end
   $var wire 12 6 pip1_offset12_int [11:0] $end
   $var wire 20 7 pip1_offset20_int [19:0] $end
   $var wire 32 8 pip1_operand_a_int [31:0] $end
   $var wire 32 9 pip1_operand_b_int [31:0] $end
   $var wire  5 ) pip1_rd_addr_int [4:0] $end
   $var wire 32 J! rdata_addr_o [31:0] $end
   $var wire 32 I! rdata_data_i [31:0] $end
   $var wire  1 G! rdata_ready_i $end
   $var wire  1 L! rdata_req_o $end
   $var wire  4 K! rdata_strb_o [3:0] $end
   $var wire  1 H! rdata_valid_i $end
   $var wire  1 . reg_wr_en_int $end
   $var wire 32 # result_int [31:0] $end
   $var wire 32 S! result_o [31:0] $end
   $var wire  1 A! rstn_i $end
   $var wire 32 P! wdata_addr_o [31:0] $end
   $var wire 32 O! wdata_data_o [31:0] $end
   $var wire  1 M! wdata_ready_i $end
   $var wire  1 R! wdata_req_o $end
   $var wire  4 Q! wdata_strb_o [3:0] $end
   $var wire  1 N! wdata_valid_i $end
   $scope module dec_stage $end
    $var wire 32 W! Compressed [31:0] $end
    $var wire 32 U! DataWidth [31:0] $end
    $var wire 32 W! Embedded [31:0] $end
    $var wire  1 @! clk_i $end
    $var wire 25 * control_word_int [24:0] $end
    $var wire  9 J cu_address_int [8:0] $end
    $var wire 25 * dec_control_word_o [24:0] $end
    $var wire 32 5 dec_instr_i [31:0] $end
    $var wire  1 , dec_new_instr_i $end
    $var wire  1 , dec_new_instr_int $end
    $var wire  1 , dec_new_instr_o $end
    $var wire 32 + dec_next_pc_i [31:0] $end
    $var wire 32 + dec_next_pc_o [31:0] $end
    $var wire 12 $ dec_offset12_o [11:0] $end
    $var wire 20 % dec_offset20_o [19:0] $end
    $var wire 32 & dec_operand_a_o [31:0] $end
    $var wire 32 ' dec_operand_b_o [31:0] $end
    $var wire  5 ) dec_rd_addr_i [4:0] $end
    $var wire  5 ( dec_rd_addr_o [4:0] $end
    $var wire 32 # dec_rd_wdata_i [31:0] $end
    $var wire  1 . dec_reg_wr_en_i $end
    $var wire  1 > dec_stage_busy_o $end
    $var wire  1 = if_stage_busy_i $end
    $var wire 12 $ imm12_int [11:0] $end
    $var wire 20 % imm20_int [19:0] $end
    $var wire  1 K invalid_instr_int $end
    $var wire  1 > new_instruction_latch $end
    $var wire 32 & operand_a_int [31:0] $end
    $var wire 32 ' operand_b_int [31:0] $end
    $var wire  5 ( rd_addr_int [4:0] $end
    $var wire  1 L rd_wr_en_int $end
    $var wire  5 F rs1_addr_int [4:0] $end
    $var wire 32 H rs1_data_int [31:0] $end
    $var wire  5 G rs2_addr_int [4:0] $end
    $var wire 32 I rs2_data_int [31:0] $end
    $var wire  1 A! rstn_i $end
    $scope module control_unit $end
     $var wire  1 @! clk_i $end
     $var wire 25 * control_word_o [24:0] $end
     $var wire  9 J cu_address_i [8:0] $end
     $var wire 25 * cw_int [24:0] $end
     $var wire  1 K invalid_instr_i $end
     $var wire  1 A! rstn_i $end
    $upscope $end
    $scope module decoder $end
     $var wire  1 @! clk_i $end
     $var wire  9 P cu_addr_int [8:0] $end
     $var wire  9 J cu_addr_o [8:0] $end
     $var wire  3 N funct3_int [2:0] $end
     $var wire  1 R funct3_mask_bit_int $end
     $var wire  7 O funct7_int [6:0] $end
     $var wire  1 Q funct7_mask_bit_int $end
     $var wire 12 $ imm12_int [11:0] $end
     $var wire 12 $ imm12_o [11:0] $end
     $var wire 20 % imm20_int [19:0] $end
     $var wire 20 % imm20_o [19:0] $end
     $var wire 32 5 instr_i [31:0] $end
     $var wire  1 K invalid_instr_int $end
     $var wire  1 K invalid_instr_o $end
     $var wire  1 S invalid_opcode_int $end
     $var wire  7 M opcode_int [6:0] $end
     $var wire  5 ( rd_int [4:0] $end
     $var wire  5 ( rd_o [4:0] $end
     $var wire  5 F rs1_int [4:0] $end
     $var wire  5 F rs1_o [4:0] $end
     $var wire  5 G rs2_int [4:0] $end
     $var wire  5 G rs2_o [4:0] $end
     $var wire  1 A! rstn_i $end
    $upscope $end
    $scope module regfile $end
     $var wire  1 @! clk_i $end
     $var wire  5 ) rd_addr_i [4:0] $end
     $var wire 32 # rd_wdata_i [31:0] $end
     $var wire 32 T regfile_data_int(0) [31:0] $end
     $var wire 32 U regfile_data_int(1) [31:0] $end
     $var wire 32 ^ regfile_data_int(10) [31:0] $end
     $var wire 32 _ regfile_data_int(11) [31:0] $end
     $var wire 32 ` regfile_data_int(12) [31:0] $end
     $var wire 32 a regfile_data_int(13) [31:0] $end
     $var wire 32 b regfile_data_int(14) [31:0] $end
     $var wire 32 c regfile_data_int(15) [31:0] $end
     $var wire 32 d regfile_data_int(16) [31:0] $end
     $var wire 32 e regfile_data_int(17) [31:0] $end
     $var wire 32 f regfile_data_int(18) [31:0] $end
     $var wire 32 g regfile_data_int(19) [31:0] $end
     $var wire 32 V regfile_data_int(2) [31:0] $end
     $var wire 32 h regfile_data_int(20) [31:0] $end
     $var wire 32 i regfile_data_int(21) [31:0] $end
     $var wire 32 j regfile_data_int(22) [31:0] $end
     $var wire 32 k regfile_data_int(23) [31:0] $end
     $var wire 32 l regfile_data_int(24) [31:0] $end
     $var wire 32 m regfile_data_int(25) [31:0] $end
     $var wire 32 n regfile_data_int(26) [31:0] $end
     $var wire 32 o regfile_data_int(27) [31:0] $end
     $var wire 32 p regfile_data_int(28) [31:0] $end
     $var wire 32 q regfile_data_int(29) [31:0] $end
     $var wire 32 W regfile_data_int(3) [31:0] $end
     $var wire 32 r regfile_data_int(30) [31:0] $end
     $var wire 32 s regfile_data_int(31) [31:0] $end
     $var wire 32 X regfile_data_int(4) [31:0] $end
     $var wire 32 Y regfile_data_int(5) [31:0] $end
     $var wire 32 Z regfile_data_int(6) [31:0] $end
     $var wire 32 [ regfile_data_int(7) [31:0] $end
     $var wire 32 \ regfile_data_int(8) [31:0] $end
     $var wire 32 ] regfile_data_int(9) [31:0] $end
     $var wire  5 F rs1_addr_i [4:0] $end
     $var wire 32 H rs1_data_int [31:0] $end
     $var wire 32 H rs1_data_o [31:0] $end
     $var wire  5 G rs2_addr_i [4:0] $end
     $var wire 32 I rs2_data_int [31:0] $end
     $var wire 32 I rs2_data_o [31:0] $end
     $var wire  1 A! rstn_i $end
     $var wire  1 L wr_en_i $end
     $scope module write_proc $end
      $scope module unnamedblk1 $end
       $var wire 32 t i [31:0] $end
      $upscope $end
     $upscope $end
    $upscope $end
   $upscope $end
   $scope module exe_stage $end
    $var wire 32 U! AddressWidth [31:0] $end
    $var wire 32 U! DataWidth [31:0] $end
    $var wire  5 x alu_op_int [4:0] $end
    $var wire 32 w alu_result_int [31:0] $end
    $var wire 32 z bju_next_pc_int [31:0] $end
    $var wire  5 y bju_op_int [4:0] $end
    $var wire  1 @! clk_i $end
    $var wire  1 > dec_stage_busy_i $end
    $var wire  1 V! exe_alu_op_end_int $end
    $var wire  1 V! exe_alu_op_end_o $end
    $var wire  3 v exe_alu_stat_int [2:0] $end
    $var wire 19 u exe_control_word_i [18:0] $end
    $var wire  1 < exe_new_instr_i $end
    $var wire 32 - exe_next_pc_int [31:0] $end
    $var wire 32 - exe_next_pc_o [31:0] $end
    $var wire 12 6 exe_offset12_i [11:0] $end
    $var wire 20 7 exe_offset20_i [19:0] $end
    $var wire 32 8 exe_operand_a_i [31:0] $end
    $var wire 32 9 exe_operand_b_i [31:0] $end
    $var wire 32 ; exe_pc_i [31:0] $end
    $var wire  5 ) exe_rd_addr_i [4:0] $end
    $var wire  5 ) exe_rd_addr_int [4:0] $end
    $var wire  5 ) exe_rd_addr_o [4:0] $end
    $var wire  1 . exe_reg_wr_en_o $end
    $var wire 32 # exe_result_int [31:0] $end
    $var wire 32 # exe_result_o [31:0] $end
    $var wire  1 ? exe_stage_busy_int $end
    $var wire  1 ? exe_stage_busy_o $end
    $var wire 32 { incr_pc_int [31:0] $end
    $var wire 32 w lsu_addr_int [31:0] $end
    $var wire  1 $! lsu_busy_int $end
    $var wire  1 '! lsu_en_int $end
    $var wire  1 &! lsu_op_int $end
    $var wire  2 %! lsu_op_size_int [1:0] $end
    $var wire 32 (! lsu_result_int [31:0] $end
    $var wire  1 } nextpc_mux_sel_int $end
    $var wire 32 J! rdata_addr_o [31:0] $end
    $var wire 32 I! rdata_data_i [31:0] $end
    $var wire  1 G! rdata_ready_i $end
    $var wire  1 L! rdata_req_o $end
    $var wire  4 K! rdata_strb_o [3:0] $end
    $var wire  1 H! rdata_valid_i $end
    $var wire  6 | result_mux_sel_int [5:0] $end
    $var wire  1 A! rstn_i $end
    $var wire  1 "! shu_busy_int $end
    $var wire  1 !! shu_en_int $end
    $var wire  2 ~ shu_mode_int [1:0] $end
    $var wire 32 )! shu_result_int [31:0] $end
    $var wire  2 #! shu_size_int [1:0] $end
    $var wire 32 P! wdata_addr_o [31:0] $end
    $var wire 32 O! wdata_data_o [31:0] $end
    $var wire  1 M! wdata_ready_i $end
    $var wire  1 R! wdata_req_o $end
    $var wire  4 Q! wdata_strb_o [3:0] $end
    $var wire  1 N! wdata_valid_i $end
    $scope module alu $end
     $var wire  1 V! alu_int_end $end
     $var wire  1 V! alu_op_end_o $end
     $var wire 32 w alu_result_o [31:0] $end
     $var wire  3 v alu_stat_int [2:0] $end
     $var wire  3 v alu_stat_o [2:0] $end
     $var wire  1 @! clk_i $end
     $var wire 32 w op_result_int [31:0] $end
     $var wire 32 8 operand_a_i [31:0] $end
     $var wire 32 9 operand_b_i [31:0] $end
     $var wire  5 x operation_i [4:0] $end
     $var wire  1 A! rstn_i $end
     $var wire 32 /! status_comp_data [31:0] $end
     $var wire  1 X! status_flag_int $end
    $upscope $end
    $scope module bju $end
     $var wire 32 Y! DATAWIDTH [31:0] $end
     $var wire  3 v bju_alu_stat_i [2:0] $end
     $var wire 32 8 bju_basereg_i [31:0] $end
     $var wire  1 3! bju_branch_taken_int $end
     $var wire  1 3! bju_branch_taken_o $end
     $var wire 32 z bju_next_pc_int [31:0] $end
     $var wire 32 z bju_next_pc_o [31:0] $end
     $var wire 12 6 bju_offset12_i [11:0] $end
     $var wire 20 7 bju_offset20_i [19:0] $end
     $var wire  5 y bju_op_i [4:0] $end
     $var wire 32 ; bju_pc_i [31:0] $end
     $var wire 32 4! bju_selected_data_int [31:0] $end
     $var wire  1 @! clk_i $end
     $var wire  1 A! rstn_i $end
    $upscope $end
    $scope module exe_cu $end
     $var wire 32 U! DataWidth [31:0] $end
     $var wire  1 @! clk_i $end
     $var wire  1 ,! event_latch $end
     $var wire  1 V! execu_alu_op_end_i $end
     $var wire  5 x execu_alu_op_int [4:0] $end
     $var wire  5 x execu_alu_op_o [4:0] $end
     $var wire  5 y execu_bju_op_int [4:0] $end
     $var wire  5 y execu_bju_op_o [4:0] $end
     $var wire 19 u execu_control_word_i [18:0] $end
     $var wire  1 > execu_dec_stage_busy_i $end
     $var wire  1 ? execu_exe_stage_busy_int $end
     $var wire  1 ? execu_exe_stage_busy_o $end
     $var wire  1 $! execu_lsu_busy_i $end
     $var wire  1 '! execu_lsu_en_int $end
     $var wire  1 '! execu_lsu_en_o $end
     $var wire  1 &! execu_lsu_op_int $end
     $var wire  1 &! execu_lsu_op_o $end
     $var wire  2 %! execu_lsu_op_size_int [1:0] $end
     $var wire  2 %! execu_lsu_op_size_o [1:0] $end
     $var wire  1 } execu_nextpc_sel_int $end
     $var wire  1 } execu_nextpc_sel_o $end
     $var wire  6 | execu_result_sel_int [5:0] $end
     $var wire  6 | execu_result_sel_o [5:0] $end
     $var wire  1 "! execu_shu_busy_i $end
     $var wire  1 !! execu_shu_en_int $end
     $var wire  1 !! execu_shu_en_o $end
     $var wire  2 ~ execu_shu_mode_int [1:0] $end
     $var wire  2 ~ execu_shu_mode_o [1:0] $end
     $var wire  2 #! execu_shu_size_i [1:0] $end
     $var wire  2 +! lsu_fsm [1:0] $end
     $var wire  2 .! lsu_latch [1:0] $end
     $var wire  1 A! rstn_i $end
     $var wire  2 *! shift_fsm [1:0] $end
     $var wire  2 -! shift_latch [1:0] $end
    $upscope $end
    $scope module lsu $end
     $var wire 32 U! AddressWidth [31:0] $end
     $var wire 32 U! DataWidth [31:0] $end
     $var wire  1 @! clk_i $end
     $var wire  1 $! lsu_busy_int $end
     $var wire  1 $! lsu_busy_o $end
     $var wire  1 '! lsu_op_en_i $end
     $var wire  1 &! lsu_op_i $end
     $var wire  2 %! lsu_op_size_i [1:0] $end
     $var wire 32 (! lsu_result_int [31:0] $end
     $var wire 32 (! lsu_result_o [31:0] $end
     $var wire 12 6 lsu_woffset_i [11:0] $end
     $var wire 32 w op_addr_i [31:0] $end
     $var wire 32 9 op_data_i [31:0] $end
     $var wire 32 5! rdata_addr_int [31:0] $end
     $var wire 32 J! rdata_addr_o [31:0] $end
     $var wire 32 I! rdata_data_i [31:0] $end
     $var wire  1 G! rdata_ready_i $end
     $var wire  1 7! rdata_req_int $end
     $var wire  1 L! rdata_req_o $end
     $var wire  4 6! rdata_strb_int [3:0] $end
     $var wire  4 K! rdata_strb_o [3:0] $end
     $var wire  1 H! rdata_valid_i $end
     $var wire  2 <! rdmem_state [1:0] $end
     $var wire  1 A! rstn_i $end
     $var wire 32 9! wdata_addr_int [31:0] $end
     $var wire 32 P! wdata_addr_o [31:0] $end
     $var wire 32 8! wdata_data_int [31:0] $end
     $var wire 32 O! wdata_data_o [31:0] $end
     $var wire  1 M! wdata_ready_i $end
     $var wire  1 ;! wdata_req_int $end
     $var wire  1 R! wdata_req_o $end
     $var wire  4 :! wdata_strb_int [3:0] $end
     $var wire  4 Q! wdata_strb_o [3:0] $end
     $var wire  1 N! wdata_valid_i $end
     $var wire  2 =! wdmem_state [1:0] $end
     $var wire 32 >! woffset_int [31:0] $end
    $upscope $end
    $scope module shu $end
     $var wire  1 @! clk_i $end
     $var wire 32 8 operand_a_i [31:0] $end
     $var wire  5 0! operand_b_i [4:0] $end
     $var wire  1 A! rstn_i $end
     $var wire  5 1! shiftreg_cnt_int [4:0] $end
     $var wire  1 "! shu_busy_int $end
     $var wire  1 "! shu_busy_o $end
     $var wire  1 !! shu_en_i $end
     $var wire  1 2! shu_end $end
     $var wire  2 ~ shu_mode_i [1:0] $end
     $var wire 32 )! shu_result_int [31:0] $end
     $var wire 32 )! shu_result_o [31:0] $end
    $upscope $end
   $upscope $end
   $scope module if_stage $end
    $var wire 32 U! DataWidth [31:0] $end
    $var wire 32 W! PrefetchBuffer [31:0] $end
    $var wire  1 @! clk_i $end
    $var wire 32 2 curr_pc_int [31:0] $end
    $var wire 32 W! iCache [31:0] $end
    $var wire 32 W! iTCM [31:0] $end
    $var wire 32 2 if_curr_pc_o [31:0] $end
    $var wire  1 1 if_fetch_en_i $end
    $var wire 32 3 if_instr_o [31:0] $end
    $var wire 32 D! if_instr_rdata_i [31:0] $end
    $var wire  1 B! if_instr_ready_i $end
    $var wire  1 4 if_instr_req_o $end
    $var wire  1 C! if_instr_valid_i $end
    $var wire  1 / if_new_instr_o $end
    $var wire 32 - if_next_pc_i [31:0] $end
    $var wire  1 0 if_pc_en_i $end
    $var wire  1 = if_stage_busy_int $end
    $var wire  1 = if_stage_busy_o $end
    $var wire 32 3 instr_int [31:0] $end
    $var wire  1 4 instr_req_int $end
    $var wire  1 / new_instr_int $end
    $var wire  1 A! rstn_i $end
    $scope module fu $end
     $var wire 32 U! DataWidth [31:0] $end
     $var wire  1 @! clk_i $end
     $var wire  1 1 if_fu_fetch_en_i $end
     $var wire 32 3 if_fu_instr_o [31:0] $end
     $var wire 32 D! if_fu_instr_rdata_i [31:0] $end
     $var wire  1 B! if_fu_instr_ready_i $end
     $var wire  1 4 if_fu_instr_req_o $end
     $var wire  1 C! if_fu_instr_valid_i $end
     $var wire  1 / if_fu_new_instr_o $end
     $var wire  1 = if_fu_stage_busy_o $end
     $var wire  1 = if_stage_busy_int $end
     $var wire  2 E imem_state_int [1:0] $end
     $var wire 32 3 instr_int [31:0] $end
     $var wire  1 4 instr_req_int $end
     $var wire  1 / new_instr_int $end
     $var wire  1 A! rstn_i $end
    $upscope $end
   $upscope $end
   $scope module pcu $end
    $var wire 32 U! DataWidth [31:0] $end
    $var wire 32 Z! StageNum [31:0] $end
    $var wire  1 @! clk_i $end
    $var wire  1 ^! decs_halt_int $end
    $var wire  1 [! decs_triggered_int $end
    $var wire  1 _! exes_halt_int $end
    $var wire  1 \! exes_triggered_int $end
    $var wire  1 ]! ifs_halt_int $end
    $var wire  1 ?! ifs_triggered_int $end
    $var wire  1 > pcu_decs_busy_i $end
    $var wire  1 ? pcu_exes_busy_i $end
    $var wire  1 = pcu_ifs_busy_i $end
    $var wire  1 1 pcu_ifs_fetch_en_int $end
    $var wire  1 1 pcu_ifs_fetch_en_o $end
    $var wire  1 A pcu_pip0_flush_int $end
    $var wire  1 A pcu_pip0_flush_o $end
    $var wire  1 @ pcu_pip0_stall_int $end
    $var wire  1 @ pcu_pip0_stall_o $end
    $var wire  1 C pcu_pip1_flush_int $end
    $var wire  1 C pcu_pip1_flush_o $end
    $var wire  1 B pcu_pip1_stall_int $end
    $var wire  1 B pcu_pip1_stall_o $end
    $var wire  1 A! rstn_i $end
   $upscope $end
   $scope module pipe0 $end
    $var wire 32 U! DataWidth [31:0] $end
    $var wire  1 @! clk_i $end
    $var wire  1 A pip_flush_i $end
    $var wire 32 3 pip_instr_i [31:0] $end
    $var wire 32 5 pip_instr_int [31:0] $end
    $var wire 32 5 pip_instr_o [31:0] $end
    $var wire  1 / pip_new_instr_i $end
    $var wire  1 , pip_new_instr_int $end
    $var wire  1 , pip_new_instr_o $end
    $var wire 32 2 pip_next_pc_i [31:0] $end
    $var wire 32 + pip_next_pc_int [31:0] $end
    $var wire 32 + pip_next_pc_o [31:0] $end
    $var wire  1 @ pip_stall_i $end
    $var wire  1 A! rstn_i $end
   $upscope $end
   $scope module pipe1 $end
    $var wire 32 U! DataWidth [31:0] $end
    $var wire  1 @! clk_i $end
    $var wire 25 * pip_control_word_i [24:0] $end
    $var wire 25 : pip_control_word_int [24:0] $end
    $var wire 25 : pip_control_word_o [24:0] $end
    $var wire  1 C pip_flush_i $end
    $var wire  1 , pip_new_instr_i $end
    $var wire  1 < pip_new_instr_int $end
    $var wire  1 < pip_new_instr_o $end
    $var wire 32 + pip_next_pc_i [31:0] $end
    $var wire 32 ; pip_next_pc_int [31:0] $end
    $var wire 32 ; pip_next_pc_o [31:0] $end
    $var wire 12 $ pip_offset12_i [11:0] $end
    $var wire 12 6 pip_offset12_int [11:0] $end
    $var wire 12 6 pip_offset12_o [11:0] $end
    $var wire 20 % pip_offset20_i [19:0] $end
    $var wire 20 7 pip_offset20_int [19:0] $end
    $var wire 20 7 pip_offset20_o [19:0] $end
    $var wire 32 & pip_operand_a_i [31:0] $end
    $var wire 32 8 pip_operand_a_int [31:0] $end
    $var wire 32 8 pip_operand_a_o [31:0] $end
    $var wire 32 ' pip_operand_b_i [31:0] $end
    $var wire 32 9 pip_operand_b_int [31:0] $end
    $var wire 32 9 pip_operand_b_o [31:0] $end
    $var wire  5 ( pip_rd_addr_i [4:0] $end
    $var wire  5 ) pip_rd_addr_int [4:0] $end
    $var wire  5 ) pip_rd_addr_o [4:0] $end
    $var wire  1 B pip_stall_i $end
    $var wire  1 A! rstn_i $end
   $upscope $end
  $upscope $end
 $upscope $end
$enddefinitions $end


#8
b00000000000000000000000000000000 #
b000000000000 $
b00000000000000000000 %
b00000000000000000000000000000000 &
b00000000000000000000000000000000 '
b00000 (
b00000 )
b0000000000000000000000000 *
b00000000000000000000000000000000 +
0,
b00000000000000000000000000000100 -
0.
0/
00
01
b00000000000000000000000000000000 2
b00000000000000000000000000000000 3
04
b00000000000000000000000000000000 5
b000000000000 6
b00000000000000000000 7
b00000000000000000000000000000000 8
b00000000000000000000000000000000 9
b0000000000000000000000000 :
b00000000000000000000000000000000 ;
0<
0=
0>
0?
0@
0A
0B
0C
0D
b00 E
b00000 F
b00000 G
b00000000000000000000000000000000 H
b00000000000000000000000000000000 I
b111111111 J
1K
0L
b0000000 M
b000 N
b0000000 O
b000000000 P
0Q
0R
0S
b00000000000000000000000000000000 T
b00000000000000000000000000000000 U
b00000000000000000000000000000000 V
b00000000000000000000000000000000 W
b00000000000000000000000000000000 X
b00000000000000000000000000000000 Y
b00000000000000000000000000000000 Z
b00000000000000000000000000000000 [
b00000000000000000000000000000000 \
b00000000000000000000000000000000 ]
b00000000000000000000000000000000 ^
b00000000000000000000000000000000 _
b00000000000000000000000000000000 `
b00000000000000000000000000000000 a
b00000000000000000000000000000000 b
b00000000000000000000000000000000 c
b00000000000000000000000000000000 d
b00000000000000000000000000000000 e
b00000000000000000000000000000000 f
b00000000000000000000000000000000 g
b00000000000000000000000000000000 h
b00000000000000000000000000000000 i
b00000000000000000000000000000000 j
b00000000000000000000000000000000 k
b00000000000000000000000000000000 l
b00000000000000000000000000000000 m
b00000000000000000000000000000000 n
b00000000000000000000000000000000 o
b00000000000000000000000000000000 p
b00000000000000000000000000000000 q
b00000000000000000000000000000000 r
b00000000000000000000000000000000 s
b00000000000000000000000000000000 t
b0000000000000000000 u
b100 v
b00000000000000000000000000000000 w
b00000 x
b00000 y
b00000000000000000000000000000000 z
b00000000000000000000000000000100 {
b000000 |
0}
b00 ~
0!!
0"!
b00 #!
0$!
b00 %!
0&!
0'!
b00000000000000000000000000000000 (!
b00000000000000000000000000000000 )!
b00 *!
b00 +!
0,!
b00 -!
b00 .!
b00000000000000000000000000000000 /!
b00000 0!
b00000 1!
02!
03!
b00000000000000000000000000000000 4!
b00000000000000000000000000000000 5!
b0000 6!
07!
b00000000000000000000000000000000 8!
b00000000000000000000000000000000 9!
b0000 :!
0;!
b00 <!
b00 =!
b00000000000000000000000000000000 >!
0?!
0@!
0A!
0B!
0C!
b00000000000000000000000000000000 D!
0E!
b00000000000000000000000000000000 F!
0G!
0H!
b00000000000000000000000000000000 I!
b00000000000000000000000000000000 J!
b0000 K!
0L!
0M!
0N!
b00000000000000000000000000000000 O!
b00000000000000000000000000000000 P!
b0000 Q!
0R!
b00000000000000000000000000000000 S!
1T!
b00000000000000000000000000100000 U!
1V!
b00000000000000000000000000000000 W!
0X!
b00000000000000000000000000100000 Y!
b00000000000000000000000000000011 Z!
0[!
0\!
0]!
0^!
0_!
b00000000000000000000000000100000 `!
b00000000000000000000000000000010 a!
b00 b!
b01 c!
b10 d!
b00100 e!
b01101 f!
b00101 g!
b01100 h!
b11011 i!
b11001 j!
b11000 k!
b00000 l!
b01000 m!
b000 n!
b001 o!
b010 p!
b011 q!
b100 r!
b101 s!
b110 t!
b111 u!
b11 v!
0w!
#10
10
11
1D
b00000000000000000000000000100000 t
1@!
#15
0@!
#18
1A!
#20
00
01
b00000000000000000000000000000100 2
14
1=
0D
b01 E
1@!
1E!
b00000000000000000000000000000100 F!
#25
0@!
#28
1B!
#30
b00000000000000000000000000000100 +
04
b10 E
1?!
1@!
0E!
#35
0@!
#38
0B!
1C!
b00000110000000000000000010010011 D!
#40
b00000000000000000000000000001000 -
1/
b00000110000000000000000010010011 3
b00000000000000000000000000000100 ;
0=
b00 E
b00000000000000000000000000000100 z
b00000000000000000000000000001000 {
1@!
#45
0@!
#48
0C!
